﻿{
  "roomAvailability": [
    {
      "startAvailability": "2019-08-01T09:30:00.000+02:00",
      "endAvailability": "2019-08-01T13:30:00.000+02:00",
      "keyRoom": "salle1",
      "volume": 19,
      "type": "roomAvailability",
      "equipment": ["videoproj", "Internet"]
    }
  ],
  "training": [
    {
      "description": "Ce module aborde les bases indispensables pour toutes les personnes souhaitant participer à des actions non-violentes et de désobéissance civile. On y abordera notamment l'attitude non-violente en action, différents registres d'action et leurs critères de non-violence, comment désamorcer une situation d’agression, les risques juridiques, le comportement à adopter en cas d'arrestation par les forces de l'ordre, etc. La formation commence le matin et se termine l’après-midi avec une mise en situation d’action !\n",
      "important": "Niveau : débutant\nPour suivre cette formation il faut aussi s'inscrire à la formation \"Simulation d'action\"",
      "dependency": [],
      "title": "Action non-violente et désobéissance civile",
      "key": "ACT01",
      "descCategory": "Action",
      "colorCategory": "#ff00ff",
      "keyCategory": "ACT",
      "length": 240,
      "occurrence": 8,
      "volume": 30,
      "type": "training",
      "volunteerFactor": 0,
      "children": "x",
      "dependencies": [],
      "roomAffectation": [],
      "equipment": [
        {
          "key": "videoproj",
          "name": "Videoprojecteur"
        }
      ],
      "curriculums": [],
      "slots": [
        {
          "keyTraining": "ACT01",
          "keySlot": "ACT01[1][1]",
          "length": 120,
          "type": "slot",
          "trainerAffectation": ["Cécile Marchand", "Till Giana"],
          "dependencies": []
        },
        {
          "keyTraining": "ACT01",
          "keySlot": "ACT01[2][1]",
          "length": 120,
          "type": "slot",
          "trainerAffectation": ["Emma Beatson", "Till Giana"],
          "dependencies": []
        }
      ]
    }
  ],
  "trainerAvailability": [
    {
      "keyTrainer": "Cécile Marchand",
      "startAvailability": "2019-08-01T09:00:00.000+02:00",
      "endAvailability": "2019-08-11T18:00:00.000+02:00",
      "affectation": [
        "FOND01",
        "MET13",
        "APERO01",
        "APERO02",
        "STRAT01",
        "PRO/CAMP20",
        "PRO/CAMP41"
      ],
      "firstName": "Cécile",
      "lastName": "Marchand",
      "type": "trainerAvailability"
    }
  ],
  "room": [
    {
      "key": "herbe2",
      "name": "à determiner",
      "volume": 60,
      "type": "room"
    }
  ],
  "trainer": [
    {
      "key": "Claudine Darque",
      "type": "trainer",
      "firstName": "Claudine",
      "lastName": "Darque",
      "admin": true,
      "ticketId": 8062113,
      "name": "Claudine Darque"
    }
  ],
  "frezzedSlot": [
    {
      "keyTraining": "SIMACT01",
      "keySlot": "SIMACT01[1][1]",
      "start": "2019-08-09T09:00:00.000+02:00",
      "end": "2019-08-09T19:00:00.000+02:00",
      "keyRoom": "herbe",
      "keyTrainer": ["Jon Palais"],
      "type": "frezzedSlot",
      "volunteerFactor": 0,
      "length": 600,
      "volume": 1000,
      "trainingDependency": [],
      "dependencies": [],
      "keyCategory": "SIMACT",
      "colorCategory": "#9900ff",
      "descCategory": "Simul'action",
      "curriculums": [],
      "title": "Journée de préparation de la Simul'action",
      "important": "Non soumis à inscription",
      "description": "Une journée entière pour préparer la Simul'action !!",
      "freezed": "ne pas bouger"
    }
  ],
  "config": {
    "branchCreation": 5,
    "skippedLimit": 30,
    "maxIteration": 10000,
    "type": "config",
    "heuristic": {
      "progress": 24,
      "cleanPlacement": 6,
      "totalLengthRatio": 0,
      "moyStar": 3,
      "moyFreeTime": 0,
      "sameCategory": 0,
      "scattering": 3
    },
    "lengthMinuteStep": 30
  }
}
